Project1-AC.utf8
…
drugDF<-data.frame(sapply(9:50, collectData), stringsAsFactors=FALSE)

drugOverDoseTD <- tbl_df(drugDF)
colnames(drugOverDoseTD) <- colNames
drugOverDoseTD

## # A tibble: 5,105 x 42
##    ID    Date  DateType Age   Sex   Race  ResidenceCity ResidenceCounty
##    <chr> <chr> <chr>    <chr> <chr> <chr> <chr>         <chr>          
##  1 14-0~ 2014~ DateRep~ <NA>  <NA>  <NA>  <NA>          <NA>           
##  2 13-0~ 2013~ DateofD~ 48    Male  Black NORWALK       <NA>           
##  3 16-0~ 2016~ DateofD~ 30    Fema~ White SANDY HOOK    FAIRFIELD      
##  4 16-0~ 2016~ DateofD~ 23    Male  White RYE           WESTCHESTER    
##  5 13-0~ 2013~ DateofD~ 22    Male  Asia~ FLUSHING      QUEENS         
##  6 14-0~ 2014~ DateofD~ 23    Male  White BRISTOL       <NA>           
##  7 12-0~ 2012~ DateofD~ 21    Fema~ White WEST HARTFORD HARTFORD       
##  8 13-0~ 2013~ DateofD~ 40    Fema~ White HAMDEN        NEW HAVEN      
##  9 12-0~ 2012~ DateofD~ 40    Male  White EAST HARTFORD HARTFORD       
## 10 13-0~ 2013~ DateofD~ 50    Male  White MONTVILLE     NEW LONDON     
## # ... with 5,095 more rows, and 34 more variables: ResidenceState <chr>,
## #   DeathCity <chr>, DeathCounty <chr>, Location <chr>,
## #   LocationifOther <chr>, DescriptionofInjury <chr>, InjuryPlace <chr>,
## #   InjuryCity <chr>, InjuryCounty <chr>, InjuryState <chr>, COD <chr>,
## #   OtherSignifican <chr>, Heroin <chr>, Cocaine <chr>, Fentanyl <chr>,
## #   FentanylAnalogue <chr>, Oxycodone <chr>, Oxymorphone <chr>,
## #   Ethanol <chr>, Hydrocodone <chr>, Benzodiazepine <chr>,
## #   Methadone <chr>, Amphet <chr>, Tramad <chr>, Morphine_NotHeroin <chr>,
## #   Hydromorphone <chr>, Other <chr>, OpiateNOS <chr>, AnyOpioid <chr>,
…
